[edit]
root@R1# show | display set

set version 12.1X47-D15.4
set system host-name R1
set system root-authentication encrypted-password "$1$xH9xJoL6$MFOUYnZr4.Qj2NM24XInz/"
set interfaces ge-0/0/1 unit 0 family inet address 1.1.1.1/30
set interfaces ge-0/0/2 unit 0 family inet address 10.1.1.254/24
set interfaces st0 unit 1 family inet
set routing-options static route 2.2.2.0/30 next-hop 1.1.1.2
set routing-options static route 10.2.2.0/24 next-hop st0.1
set security ike proposal IKE-PROP authentication-method pre-shared-keys
set security ike proposal IKE-PROP dh-group group5
set security ike proposal IKE-PROP authentication-algorithm sha1
set security ike proposal IKE-PROP encryption-algorithm aes-128-cbc
set security ike proposal IKE-PROP lifetime-seconds 3600
set security ike policy IKE-POL mode main
set security ike policy IKE-POL proposals IKE-PROP
set security ike policy IKE-POL pre-shared-key ascii-text "$9$1N3ESeLxdgoGvWoGDif5IEc"
set security ike gateway IKE-GW ike-policy IKE-POL
set security ike gateway IKE-GW address 2.2.2.2
set security ike gateway IKE-GW external-interface ge-0/0/1.0
set security ipsec proposal IPSEC-PROP protocol esp
set security ipsec proposal IPSEC-PROP authentication-algorithm hmac-sha1-96
set security ipsec proposal IPSEC-PROP encryption-algorithm aes-128-cbc
set security ipsec proposal IPSEC-PROP lifetime-seconds 3600
set security ipsec policy IPSEC-POL perfect-forward-secrecy keys group5
set security ipsec vpn IPSEC-VPN bind-interface st0.1
set security ipsec vpn IPSEC-VPN vpn-monitor
set security ipsec vpn IPSEC-VPN ike gateway IKE-GW
set security ipsec vpn IPSEC-VPN ike ipsec-policy IPSEC-POL
set security ipsec vpn IPSEC-VPN establish-tunnels immediately
set security address-book global address Network-A 10.1.1.0/24
set security address-book global address Network-B 10.2.2.0/24
set security policies from-zone Trust to-zone VPN policy Trust-to-VPN match source-address Network-A
set security policies from-zone Trust to-zone VPN policy Trust-to-VPN match destination-address Network-B
set security policies from-zone Trust to-zone VPN policy Trust-to-VPN match application any
set security policies from-zone Trust to-zone VPN policy Trust-to-VPN then permit
set security policies from-zone VPN to-zone Trust policy VPN-to-Trust match source-address Network-B
set security policies from-zone VPN to-zone Trust policy VPN-to-Trust match destination-address Network-A
set security policies from-zone VPN to-zone Trust policy VPN-to-Trust match application any
set security policies from-zone VPN to-zone Trust policy VPN-to-Trust then permit
set security zones security-zone VPN host-inbound-traffic system-services all
set security zones security-zone VPN interfaces st0.1
set security zones security-zone Untrust host-inbound-traffic system-services ike
set security zones security-zone Untrust host-inbound-traffic system-services ping
set security zones security-zone Untrust interfaces ge-0/0/1.0 host-inbound-traffic system-services all
set security zones security-zone Trust host-inbound-traffic system-services all
set security zones security-zone Trust host-inbound-traffic protocols all
set security zones security-zone Trust interfaces ge-0/0/2.0
